     17
     13    10     6
     11     9     5
      3     5    13
     13     6     5
      4     6     5
     11     8     5
     11     6    14
     14     4    13
      8     9     7
      9     3     8
      3     3     2
      2     2     2
     13     5     2
      1     7    12
      6     9     8
      3     5    11
      4     4     9
