	100
		82		2		18
		90		13		13
		50		19		2
		92		13		12
		50		7		18
		44		10		20
		89		8		14
		69		11		2
		65		20		21
		68		20		19
		28		10		21
		47		8		13
		83		2		3
		54		1		8
		84		19		14
		62		6		3
		52		4		10
		71		2		20
		21		7		11
		63		8		3
		29		7		12
		97		15		11
		50		14		13
		37		13		5
		24		6		15
		59		15		20
		60		2		16
		68		6		17
		58		11		3
		28		14		2
		42		15		21
		45		7		15
		26		3		8
		43		20		12
		33		3		17
		89		18		3
		28		6		16
		56		14		2
		50		20		12
		84		8		17
		32		9		4
		42		20		2
		77		1		4
		28		16		15
		30		3		9
		83		16		6
		57		7		3
		32		4		16
		31		16		8
		29		10		7
		25		9		16
		56		14		15
		64		17		7
		14		5		3
		63		16		17
		95		13		4
		70		12		2
		90		5		5
		70		10		21
		37		5		2
		83		7		10
		22		4		16
		34		9		12
		80		8		8
		30		13		3
		89		6		16
		25		15		19
		40		5		3
		33		2		12
		26		5		8
		93		14		6
		73		8		9
		91		16		17
		49		2		17
		57		20		21
		80		6		6
		82		15		20
		19		16		17
		78		12		18
		78		20		15
		38		8		20
		65		16		19
		39		11		15
		53		7		8
		19		10		19
		61		15		5
		67		17		11
		75		17		6
		76		9		9
		76		4		8
		81		4		7
		57		1		3
		33		6		5
		34		10		11
		93		9		21
		49		7		7
		34		2		3
		27		16		11
		58		16		12
		22		5		15
