     16
     20     9    14
      6     6    11
      9     4     8
      6     4     1
      5     4     7
     14     4     5
      5     8     4
     17     2    12
     11     1     6
     16     4     9
     12     4    12
     17     4    15
     19     2    10
     14    10     8
     15     9     3
     12     4    10
     
