    17
      9     4    12
      4     3    12
     13     1    10
     10     2     5
      7     4     4
     19     8    14
     18     8     2
     15     7     8
     17     1     9
      4     1    12
     14     3     7
     15     3    11
      4    10     8
     18     2     6
     19     8     7
     14     5    15
     12     5     8

