     16
      3     3     9
     11     7    15
      5     1     8
      6     5     3
      7     8    12
      1     1     6
      5     4     4
      7     6     8
     19     7     1
     18     6    12
     19     9    12
      2     9    10
     17     4     4
     14     9    12
      3     8     4
     18     9     7

