	20
		26		11		15
		17		10		11
		48		2		17
		82		19		8
		45		13		2
		87		12		7
		44		1		21
		85		10		12
		81		4		13
		37		3		4
		21		20		6
		29		5		15
		20		12		9
		10		5		7
		81		16		11
		82		16		3
		59		1		3
		58		16		12
		65		8		8
		44		15		2
