    200
      6     9     6
      7     8    11
      7     9     6
     10     1    13
      4     3     6
     10     7    14
      3     5    14
     15     5    12
      3     7     9
      9     5     6
     13     2     4
     20     9     5
      3     8    12
     11     7     8
     10     9     2
      7    10     4
     12     9     5
     17     8     1
      8     4    12
     18     9     2
     14     2     7
      4     9    15
     18     6    10
      1     6     5
     18     6     8
      8     4    13
     12     9    12
     15     2     3
      4     7     5
      4     2    15
     13     9    15
      2     4    12
      9     9    13
      5     6    13
      1     1    10
      6     3    15
     14     5     9
     13     9     7
      2     8     4
      6     6     6
     13     1     9
     14     8     8
     10     5     3
      5     4     9
      6     9     7
     12    10    15
      4     4     3
     13     9    15
     15     8     6
     20     9    11
     10     4    14
     14     1    15
      8     7     3
      1     4    11
     17     6     9
      9     3    11
      6    10     9
     10    10    12
      7     6     5
     18     8     1
     19     3     5
     13     2     8
      7     6     4
      5     9     5
     14    10     9
      1     3     1
     19     8    10
     18     8     9
      1     9     8
      8     1     4
      8     9    15
     19     8     7
     10     4     7
      9    10     3
     12     4    11
      3     4     9
     18     7    15
      4     7    14
     15    10     3
     12     9     2
      2     4    14
     13     5    13
     11     6    11
     18     5    14
      3     2     3
     10     2    10
     13     7     3
     14     8     2
      4     3     5
     12     5     3
      4     6    14
     16     5    10
      5     1    14
     14     1    15
     15     3    13
     11     8     7
     12     5     7
      8     1     6
     17     9    13
      2     8     9
     10    10     8
      1    10     6
     18    10     8
     16     3     9
     12     7     6
     10     4    15
     17     7    12
      2     5    10
      1     6     5
     15     5     9
     14     1     3
      1     9     9
     16     7    13
     17     4    12
     13     8     5
     11     6     1
      8     4     3
      9     5    10
     18     1     3
     19     2     1
      5     1     1
      2     8     9
     20     1     2
      9     4     6
     15     5    15
      9     2     4
     19     9     4
     18     5    14
      6     8    10
     16     2    11
      8     1     2
      6     3     5
      6    10     3
     16     1    15
      8     5     7
     18     6    14
      2     1     7
     14     7    12
     19    10    12
      7     8    15
      6     9     3
     14     8    12
      6    10    14
      2     3     2
      1     3    10
      8     9     4
      3     5     1
     16     1     7
      7     8     6
      8     7     4
     14     1    13
     19     2     8
      9     5    12
      4     5    13
     17     3     5
      4     3     4
      5     9     2
      1     4    13
     16    10     2
     10     9    10
      8     1     7
     13     5     2
     19     6     2
     17     8     6
     17     7    13
      7     6    11
      8     4     8
      2     3    11
      9     4     6
      1     8     1
     15     2     3
      3     4    12
     18     4     2
     10     3     7
     16     4    11
     15     3     4
      6     1    14
      8     2     9
      4     4     6
      5     7     2
      1     4     1
     12     5     9
      2     6    11
     10    10    10
      5     2    14
     20     9     4
     10     1    13
      2     2    13
     15     2     3
      2     9     6
      9     6    14
     18    10     6
      2     8    10
     19     5     7
     13     6     6
     14     7    13
      7     9     7
      6     3     9
     12    10     9
      7     3     4

