	20
		38		13		10
		11		6		15
		95		2		17
		62		7		21
		94		2		6
		30		10		4
		57		13		16
		77		17		16
		41		7		14
		96		9		11
		58		13		4
		100		17		21
		80		18		14
		20		18		20
		41		19		21
		32		17		10
		19		6		2
		97		18		10
		83		19		16
		25		16		16
