    200
     11     2     5
     17     5    14
     16     2     1
      3     6     6
      2     7     3
      6     6    14
     16     1     4
      9     9    15
     18     3    12
     15     3     5
     15     9    14
     10     5     8
     10     4    12
      5     1     1
     11     9    12
      9     4     7
      5    10     2
     18     6    10
      4     2    12
      5     6     6
      8     5    14
      1     1    13
      1    10     8
      6     3     5
      1     1     9
      2     4     8
      7     2     2
     19     3     8
     13     7     7
     15     4     4
     15     8    14
      3     9    14
      3     2    11
     17     1    10
     16     4    15
     20     8     4
      2     8    11
     13     7     6
      3    10    12
     20     2    11
     20     4     4
      5     6    10
      4     5     8
      6     2     6
     16     8     2
     12     9     5
      5     8     4
     17     5    11
     11     2     7
      6     5     5
     20    10     5
      8     4    11
      9     7    15
     15     1     8
     19     2    14
      4     3     8
      9    10    13
      5     1    14
      7     4    12
     19     3     5
     10     7    15
     14     5    12
      1     7    13
      4     1    15
     17    10     3
     19     7     3
      1     8     6
      6     7     5
     17    10     3
     19     8    14
     20     6     3
     18     9    15
     17     1    10
      7     3     5
     19     8     6
     14     8     9
      4     6     9
      5     3    12
      5     8    11
      3     6     1
     15     5     7
     11     3     8
     10     4    14
     15     7     3
      8     6    14
      5     6    10
     20     7    14
      4     9     2
     10     9     3
      3     5     7
     18     2     5
      2     2     4
      9     8    11
     15     9    11
      6     5    13
      1     3     5
      2     8    11
     19     9    13
      6     5     4
      8     7    12
      8     1    15
     15    10    15
     20     3     2
     11     4    15
      9     3     4
      7     7     3
      4     9     2
      6     8     8
      6     6     7
      2     4     4
     18     5     7
      8     9     1
      4     8    13
     20     6    14
     10     5    13
      8     6    11
     13     3     1
     12    10     4
     14     7    15
      6     7     1
     18     4     8
     18     8    14
     18     8     8
     19     6     2
     17     6     2
     20     3     1
     13     5     2
      3     3    15
     15     4    15
     17     3     2
     15     8    13
     17     4    10
     16     8     8
     17     2     2
     15     6     7
     17     2     4
      2     7    14
     20     6     8
      8     1     5
      7     8     4
     11     2    14
     12     3     2
      8     1    15
      3     2     2
      4     7    15
     11     3     3
     19     7    11
      2     5     7
      7     8     9
      5     7    14
      4     2    13
      7     8     1
     17     6    15
     18    10     4
      1     6    11
      6     4     7
     13     3    10
     20     6     3
      4     4     4
     14    10     9
      8    10    12
      2     2    14
      7     2     5
      3     1     5
     18     9     5
      6     4     7
     12     1    10
      5     9    14
      5     7    10
     17     8     5
     13     7     7
     12     2     2
     14     5     7
     11     5     1
      5     9     6
      8     5     7
      2     4     5
      3     6    10
     13     2    13
      9     9     1
      5     1     9
     10     8    11
     12    10    14
     14     1    14
      5     9     4
      7     1     7
     20     3     4
     13     4     2
      8     1    11
      2     8     8
      8     9     7
      3     4     9
      9     8    12
     19     6     2
     19     9     1
     13     3     6
      3     9    12
     14    10    14
      4     5    13
      6    10     6

