	20
		78		14		19
		76		15		13
		45		2		2
		36		19		11
		62		18		7
		24		1		20
		97		7		17
		50		15		18
		19		9		4
		91		19		5
		84		1		10
		37		5		5
		39		20		6
		58		2		16
		49		11		14
		64		20		14
		65		10		12
		76		9		6
		93		2		6
		98		6		16
