	30
		40		14		4
		87		8		7
		30		17		10
		94		8		16
		56		5		2
		15		14		13
		82		20		6
		45		1		20
		89		3		3
		95		15		12
		73		7		18
		97		19		5
		71		14		14
		64		9		21
		77		19		6
		98		3		11
		48		3		10
		33		11		2
		44		15		4
		64		8		18
		30		4		5
		58		2		3
		12		17		8
		50		20		16
		100		17		15
		70		7		17
		26		9		11
		17		7		2
		32		3		8
		66		13		8
