     30
      4     2    12
     11     6     6
     18    10    12
     12     9     8
     13     2    15
      4     1    15
     10     1    12
     16     8    14
     17     5    11
      4     3    13
     14     5     2
     19     1     6
     20    10    12
      3     1    14
     13     2     3
     16     5    10
      3    10     3
      8    10     4
     13     4    14
      4     6     1
      2     8     8
     16     6    10
     11     5    15
      2     8    14
     10     1     2
     17     6     3
      3     5    13
      6    10     3
     18     2    13
     15     6     7
    
