	40
		37		16		15
		80		2		20
		72		1		21
		51		16		17
		12		19		2
		15		5		19
		83		19		5
		22		8		15
		44		1		20
		42		20		7
		11		13		14
		51		13		15
		14		9		7
		60		14		3
		11		9		13
		49		5		17
		39		13		8
		73		10		15
		10		12		7
		23		8		18
		88		20		2
		96		6		14
		29		9		14
		84		16		7
		44		17		7
		66		19		11
		75		18		16
		60		4		5
		42		4		8
		11		1		8
		20		16		7
		59		4		12
		16		9		13
		44		7		8
		56		11		16
		56		5		14
		10		7		3
		84		15		7
		71		20		2
		95		10		14
