	40
		86		9		12
		35		7		7
		44		16		7
		68		9		17
		96		17		7
		99		6		19
		79		17		3
		100		12		16
		52		12		14
		21		15		6
		43		1		6
		35		11		12
		27		5		19
		22		5		7
		94		10		15
		41		5		20
		61		18		16
		50		20		19
		92		18		11
		35		20		17
		96		7		9
		34		16		19
		65		10		15
		39		1		19
		56		7		21
		81		11		17
		67		3		6
		40		9		18
		49		10		15
		82		15		6
		10		4		4
		91		9		19
		41		4		20
		75		16		20
		88		17		7
		74		19		17
		32		11		11
		48		18		20
		68		15		9
		97		20		3
