	40
		82		9		10
		30		2		6
		16		5		18
		16		7		18
		17		8		8
		91		20		5
		58		1		4
		67		10		3
		34		7		9
		54		13		18
		45		8		19
		58		6		20
		41		3		17
		91		19		3
		86		19		11
		12		3		2
		44		4		14
		15		3		4
		39		8		2
		63		20		15
		97		20		14
		48		20		19
		39		16		13
		72		8		11
		45		17		21
		72		3		3
		69		5		6
		80		9		21
		19		14		20
		27		10		20
		29		14		11
		61		16		3
		52		16		18
		62		3		18
		97		11		14
		90		1		8
		14		3		12
		27		17		20
		57		6		5
		74		3		6
