	50
		25		12		17
		41		12		5
		17		11		19
		54		14		19
		69		1		14
		79		3		10
		60		18		12
		79		18		12
		59		9		18
		16		1		17
		93		15		9
		94		16		12
		71		5		2
		18		12		7
		89		9		7
		11		4		10
		62		8		7
		24		14		16
		11		9		4
		70		8		17
		31		8		11
		45		14		19
		18		16		3
		89		4		6
		61		1		15
		77		2		10
		48		11		9
		18		3		2
		25		16		10
		14		6		18
		36		12		17
		69		16		10
		52		3		6
		100		9		21
		23		1		13
		78		19		14
		99		8		16
		99		15		18
		21		16		6
		40		11		11
		73		2		14
		92		2		2
		74		11		4
		42		13		12
		96		20		13
		59		20		3
		23		20		10
		94		8		16
		69		16		11
		39		4		2
