    70
      5     6     8
     12     1     9
      6     8    10
     11     3     1
     11     4     4
      8     5     5
      8     1     8
     19     5     2
     15     8     4
     13     5     7
     16     9     3
     15     9    14
     13    10    15
      5     9     3
      8     7     8
      2     5     7
     19     1     5
      4     6     6
     14     2     6
     19     2    15
      9     8     1
     20    10    13
     14     2     2
      3     4    14
     18     5    11
     13     7     9
      5     4    15
     20    10     8
      6    10     5
      9     7     4
     20     6    14
     16     7    14
      8     9     6
      7    10    12
      6     6    11
      6     5    11
      3     9     5
     14     4     2
      3    10     2
     15     5    11
     20     1     3
      7     3     7
      7     4    11
     19    10     7
     13     1     7
     19     3    13
      3     1     2
      7     5    11
     13     7    10
      7     7     9
     15     9     1
     15     8     9
      3     7     1
     13     3     2
     16     3     6
      7     1     9
     16     5    14
     18     7     6
     20     5    12
     10     4    11
      9     7    11
     15     8     6
      2     7    14
      2     7    15
      9     9    14
      2    10     5
      6     2     1
     20     5     4
      3     6    13
      5     4    15




