	80
		91		11		14
		48		10		2
		54		16		12
		82		19		13
		83		5		21
		32		4		4
		98		17		9
		16		19		9
		79		7		3
		37		10		7
		63		15		17
		16		6		6
		29		6		21
		36		19		11
		46		17		15
		10		20		18
		39		5		7
		26		3		5
		49		13		4
		18		8		13
		86		19		19
		79		11		4
		99		7		21
		90		13		20
		97		11		8
		65		20		7
		96		11		4
		49		9		6
		81		6		10
		92		4		17
		91		19		16
		68		10		18
		98		6		4
		25		13		8
		85		1		18
		59		11		17
		97		10		19
		69		5		19
		72		4		4
		63		17		19
		91		13		18
		97		6		19
		34		14		4
		29		1		8
		54		18		9
		19		1		11
		13		1		12
		67		4		17
		67		3		12
		17		10		21
		14		5		13
		82		14		11
		51		11		4
		29		2		16
		78		8		13
		48		14		5
		85		15		5
		58		6		20
		59		15		14
		14		18		16
		23		18		20
		39		7		6
		65		13		8
		62		13		10
		99		20		9
		32		18		2
		38		14		8
		76		12		6
		25		5		20
		36		20		9
		36		3		6
		69		9		12
		39		16		4
		61		13		17
		27		16		8
		35		2		6
		57		11		11
		43		3		2
		66		6		18
		56		14		17
