    80
     18     8    15
     17     4     3
      1    10    15
     18     6     5
     10     6     2
      6     9     5
     14     9     3
     15     7     4
     12     6     6
      5     4     6
      7     7     8
     19     7     1
      7     3     7
     12     6     7
     19     7    13
     13     7     8
      6     6     4
      5     6     3
     11     1    13
      2     1     2
      6    10    12
     18     1    12
      6     9     9
     15     7     6
     19     2     4
      1     2     6
     13    10     2
      3     1     3
     20    10     6
      4     8    14
      1     5    13
     16    10     7
     14     5     5
     14     8    11
      3     8     6
      3     8     6
      7    10     5
     14     3     9
     13     6    13
     12     8     7
     13     2     8
     13     7    15
      4     9     6
      9     5    13
     18    10     4
      9     8     8
     14     3     2
     19     3     8
      1     9     3
     20    10    13
     20     7     4
      2     4    15
      4     2     6
      1     2     1
      7     1     8
      5     1    15
     18     4     8
     15     8    15
     10     9    15
     20     2     5
     14     4     8
     15    10    15
     19     8    10
      2     3     5
     11     4    11
     11     7     6
     17     7     7
     14     4     9
      1     1    11
      1     8    12
      6     5     8
     19     2     4
      9     5     6
      3     8     7
      5     8     2
      4     1     7
      7     1     8
      5     5     1
     13     1     8
      6     3    13



