    90
     12     7    11
      4     7     6
     14     9    13
     15    10     3
     10    10    10
      7     2    12
      1     5     5
      7     6     3
     14     2    12
     19     9     6
     11     3    13
      7     3    15
     20     6     3
      9     3    13
      3     7    10
     17     1    15
     13     3    12
     14     1     5
      2     6     2
      1     6     8
      8     4    14
     19     5    12
     20     5     5
      9     1     2
     19     4     7
     17     4    15
     19     2     8
      1    10    13
     13    10    13
     17     3     9
     11     1    14
     16     3     3
     11     2    13
     10     4    12
      4     2     9
      5     7     1
      5     4     5
     14     3    13
      8     8    15
      3     6     9
      7     2     5
     10     5     3
      6     1     1
      4     2     2
      5     5     6
     14    10     3
      9     2     9
     13     9     2
      7     3     7
     13     4     3
     18     3    10
      8     6    12
     14     5     4
     17     3     9
      1     2    15
     16     6     4
      7     4    11
     16     3     3
      5     7    13
     15     8    15
      2     1     2
     15     9    11
     20     3     5
     12    10     2
     10     2     5
     16     3    13
     12     9    11
     17     9     7
     12     9    12
     13     1     6
     13     6    11
      9     7     6
      7     4     1
      8     7    11
      3     9     3
     16     8     7
     10     1     9
      4     1     2
     16     4     6
      8     3     6
      2     1     5
      8     7     2
     12     4     2
     20     5    13
      9     8     2
     15     4     4
      6     5     1
      4     8     2
     19    10    12
     17     2     1

