	90
		49		11		15
		72		1		16
		12		17		21
		60		12		14
		14		10		9
		100		4		14
		17		17		20
		38		5		16
		97		17		12
		47		6		8
		84		12		10
		31		3		11
		36		4		19
		32		16		11
		23		7		20
		30		6		3
		22		5		20
		52		16		16
		80		9		4
		51		20		21
		39		18		13
		98		9		15
		32		7		19
		59		4		14
		35		17		12
		37		5		17
		59		9		14
		93		19		9
		58		16		10
		67		4		9
		94		2		6
		49		16		6
		31		12		12
		60		17		7
		78		19		3
		70		11		19
		17		5		7
		90		1		18
		81		11		5
		39		16		8
		56		8		9
		41		15		17
		52		3		20
		80		1		16
		71		2		14
		77		14		16
		25		14		13
		37		5		13
		63		16		16
		82		15		11
		100		13		10
		90		7		4
		31		14		18
		19		3		18
		29		17		12
		69		17		5
		19		3		10
		92		18		15
		61		1		2
		29		15		9
		16		8		21
		52		1		8
		48		20		13
		80		6		7
		15		17		15
		68		13		12
		100		3		6
		97		4		3
		50		8		3
		67		7		9
		48		14		17
		93		10		9
		52		19		8
		58		5		5
		70		20		14
		42		4		18
		94		4		12
		23		13		15
		92		14		14
		27		8		20
		62		9		14
		89		2		15
		60		20		13
		14		2		10
		87		8		9
		44		8		4
		72		18		8
		52		4		12
		66		11		5
		75		11		5
